corVis: An R Package for Visualising Associations and Conditional Associations
…
ckd <- RWeka::read.arff("../data/chronic_kidney_disease.arff")
df <- ckd
#df$al <- as.ordered(df$al)
#df$su <- as.ordered(df$su)

distance <- tbl_dcor(df)
distance

# A tibble: 55 × 4
   x     y     measure measure_type
   <chr> <chr>   <dbl> <chr>       
 1 bp    age     0.189 dcor        
 2 bgr   age     0.303 dcor        
 3 bu    age     0.249 dcor        
 4 sc    age     0.242 dcor        
 5 sod   age     0.154 dcor        
 6 pot   age     0.119 dcor        
 7 hemo  age     0.254 dcor        
 8 pcv   age     0.296 dcor        
 9 wbcc  age     0.173 dcor        
10 rbcc  age     0.307 dcor        
# … with 45 more rows
…
default_measures <- default_assoc()
default_measures

# A tibble: 4 × 4
  funName    typeX   typeY   argList
  <chr>      <chr>   <chr>   <list> 
1 tbl_cor    numeric numeric <NULL> 
2 tbl_tau    ordered ordered <NULL> 
3 tbl_cancor factor  numeric <NULL> 
4 tbl_cancor other   other   <NULL> 

ckd_assoc <- calc_assoc(df,types = default_assoc())
ckd_assoc

# A tibble: 300 × 4
   x     y     measure measure_type
   <chr> <chr>   <dbl> <chr>       
 1 bp    age    0.159  pearson     
 2 sg    age    0.199  cancor      
 3 al    age    0.235  cancor      
 4 su    age    0.287  cancor      
 5 rbc   age    0.0800 cancor      
 6 pc    age    0.151  cancor      
 7 pcc   age    0.158  cancor      
 8 ba    age    0.0422 cancor      
 9 bgr   age    0.245  pearson     
10 bu    age    0.197  pearson     
# … with 290 more rows
…
If a user is interested in calculating multiple association measures
for a type of variable pair, it can be done by using the
calc_assoc and update_assoc together for
calculating different association measures and then merging the output
tibbles.

updated_ckd_assoc <- calc_assoc(df, types = updated_assoc)
updated_ckd_assoc

# A tibble: 300 × 4
   x     y     measure measure_type
   <chr> <chr>   <dbl> <chr>       
 1 bp    age    0.123  spearman    
 2 sg    age    0.199  cancor      
 3 al    age    0.235  cancor      
 4 su    age    0.287  cancor      
 5 rbc   age    0.0800 cancor      
 6 pc    age    0.151  cancor      
 7 pcc   age    0.158  cancor      
 8 ba    age    0.0422 cancor      
 9 bgr   age    0.299  spearman    
10 bu    age    0.309  spearman    
# … with 290 more rows

Calculating conditional
association

calc_assoc is also used to calculate association
measures for all the variable pairs at different levels of a categorical
variable. This helps in exploring the conditional associations and find
out the differences between the groups of the conditioning variable. The
function has a by argument which is used as the grouping
variable and needs to be categorical.

ckd_assoc_by <- calc_assoc_by(df,by = "htn")
ckd_assoc_by

# A tibble: 1,104 × 5
   x     y      measure measure_type by   
   <chr> <chr>    <dbl> <chr>        <fct>
 1 bp    age   -0.112   pearson      yes  
 2 sg    age    0.0240  cancor       yes  
 3 al    age    0.130   cancor       yes  
 4 su    age    0.219   cancor       yes  
 5 rbc   age    0.115   cancor       yes  
 6 pc    age    0.101   cancor       yes  
 7 pcc   age    0.0609  cancor       yes  
 8 ba    age    0.00562 cancor       yes  
 9 bgr   age    0.0303  pearson      yes  
10 bu    age   -0.135   pearson      yes  
# … with 1,094 more rows

By default, the function calc_assoc calculates the
association measures for all the variable pairs at different levels of
the grouping variable and the pairwise association measures for the
ungrouped data (overall) when used with the by
argument. This behavior can be changed by setting
include.overall argument to FALSE.

ckd_assoc_by <- calc_assoc_by(df,by = "htn",include.overall = FALSE)
ckd_assoc_by

# A tibble: 828 × 5
   x     y      measure measure_type by   
   <chr> <chr>    <dbl> <chr>        <fct>
 1 bp    age   -0.112   pearson      yes  
 2 sg    age    0.0240  cancor       yes  
 3 al    age    0.130   cancor       yes  
 4 su    age    0.219   cancor       yes  
 5 rbc   age    0.115   cancor       yes  
 6 pc    age    0.101   cancor       yes  
 7 pcc   age    0.0609  cancor       yes  
 8 ba    age    0.00562 cancor       yes  
 9 bgr   age    0.0303  pearson      yes  
10 bu    age   -0.135   pearson      yes  
# … with 818 more rows
…
