Association/Conditional Association measures for a dataset — calc_assoc • corVis
…
#> # A tibble: 10 × 5
#>    x            y            measure measure_type pair_type
#>    <chr>        <chr>          <dbl> <chr>        <chr>    
#>  1 Sepal.Width  Sepal.Length  -0.118 pearson      nn       
#>  2 Petal.Length Sepal.Length   0.872 pearson      nn       
#>  3 Petal.Width  Sepal.Length   0.818 pearson      nn       
#>  4 Species      Sepal.Length   0.787 cancor       nf       
#>  5 Petal.Length Sepal.Width   -0.428 pearson      nn       
#>  6 Petal.Width  Sepal.Width   -0.366 pearson      nn       
#>  7 Species      Sepal.Width    0.633 cancor       nf       
#>  8 Petal.Width  Petal.Length   0.963 pearson      nn       
#>  9 Species      Petal.Length   0.970 cancor       nf       
#> 10 Species      Petal.Width    0.964 cancor       nf       
calc_assoc(iris, by = "Species")
#> # A tibble: 24 × 6
#>    x            y            measure measure_type by         pair_type
#>    <chr>        <chr>          <dbl> <chr>        <fct>      <chr>    
#>  1 Sepal.Width  Sepal.Length   0.743 pearson      setosa     nn       
#>  2 Petal.Length Sepal.Length   0.267 pearson      setosa     nn       
#>  3 Petal.Width  Sepal.Length   0.278 pearson      setosa     nn       
#>  4 Petal.Length Sepal.Width    0.178 pearson      setosa     nn       
#>  5 Petal.Width  Sepal.Width    0.233 pearson      setosa     nn       
#>  6 Petal.Width  Petal.Length   0.332 pearson      setosa     nn       
#>  7 Sepal.Width  Sepal.Length   0.526 pearson      versicolor nn       
#>  8 Petal.Length Sepal.Length   0.754 pearson      versicolor nn       
#>  9 Petal.Width  Sepal.Length   0.546 pearson      versicolor nn       
#> 10 Petal.Length Sepal.Width    0.561 pearson      versicolor nn       
#> # … with 14 more rows
…
