Calculating associations using corVis • corVis
…
This output is used by the plotting functions to produce multiple
measures display in different layout. The code section below calculates
pearson, dcor and ace measures
for the variable pairs in penguins data. The pairs for which a measure
is not defined is not included in the result.

penguin_assoc_multi <- calc_assoc_all(d = df,
                                   measures = c("pearson",
                                                "dcor",
                                                "ace"))
penguin_assoc_multi

## # A tibble: 48 × 5
##    x                 y                 measure measure_type pair_type
##    <chr>             <chr>               <dbl> <chr>        <chr>    
##  1 bill_depth_mm     bill_length_mm    -0.235  pearson      nn       
##  2 flipper_length_mm bill_length_mm     0.656  pearson      nn       
##  3 body_mass_g       bill_length_mm     0.595  pearson      nn       
##  4 year              bill_length_mm     0.0545 pearson      nn       
##  5 flipper_length_mm bill_depth_mm     -0.584  pearson      nn       
##  6 body_mass_g       bill_depth_mm     -0.472  pearson      nn       
##  7 year              bill_depth_mm     -0.0604 pearson      nn       
##  8 body_mass_g       flipper_length_mm  0.871  pearson      nn       
##  9 year              flipper_length_mm  0.170  pearson      nn       
## 10 year              body_mass_g        0.0422 pearson      nn       
## # … with 38 more rows
…
